module gitlab.wikimedia.org/repos/fabfur/syslog-producer

go 1.21.1

require github.com/schollz/progressbar/v3 v3.14.1

require (
	github.com/mitchellh/colorstring v0.0.0-20190213212951-d06e56a500db // indirect
	github.com/rivo/uniseg v0.4.4 // indirect
	golang.org/x/sys v0.14.0 // indirect
	golang.org/x/term v0.14.0 // indirect
)
